Trump vs Staff Tweets with H2O
…
    TF(t) = (Number of times term t appears in a document) / (Total number of terms in the document)

IDF: Inverse Document Frequency, which measures how important a term is. While computing TF, all terms are considered equally important. However it is known that certain terms, such as is, of, and that, may appear a lot of times but have little importance. Thus we need to weigh down the frequent terms while scale up the rare ones, by computing the following:

    IDF(t) = log_e(Total number of documents / Number of documents with term t in it)

Compute tf-idf weights

The first step is counting the number of times that a word appears in a single document (in this case a document is a tweet).

tweet_word_counts <- tweet_words[, c("word", "id")] %>% count(id, word)
tweet_word_counts

## Source: local data frame [8,592 x 3]
## Groups: id [?]
## 
##                    id                   word     n
##                 <chr>                  <chr> <int>
## 1  676494179216805888 #makeamericagreatagain     1
## 2  676494179216805888             #trump2016     1
## 3  676494179216805888                 health     1
## 4  676494179216805888                 record     1
## 5  676509769562251264            @trumpdoral     1
## 6  676509769562251264             @trumpgolf     1
## 7  676509769562251264               accolade     1
## 8  676509769562251264                awarded     1
## 9  676509769562251264                   blue     1
## 10 676509769562251264                   golf     1
## # ... with 8,582 more rows
…
Join these two tables together as follows:

tweet_word_counts <- left_join(tweet_word_counts, total_words)

## Joining, by = "id"

tweet_word_counts

## Source: local data frame [8,592 x 4]
## Groups: id [?]
## 
##                    id                   word     n total
##                 <chr>                  <chr> <int> <int>
## 1  676494179216805888 #makeamericagreatagain     1     4
## 2  676494179216805888             #trump2016     1     4
## 3  676494179216805888                 health     1     4
## 4  676494179216805888                 record     1     4
## 5  676509769562251264            @trumpdoral     1    11
## 6  676509769562251264             @trumpgolf     1    11
## 7  676509769562251264               accolade     1    11
## 8  676509769562251264                awarded     1    11
## 9  676509769562251264                   blue     1    11
## 10 676509769562251264                   golf     1    11
## # ... with 8,582 more rows

Finally we can use the handy bind_tf_idf() function from the tidytext package to add the tf, idf and tf_idf columns to the data frame.

tweet_word_counts <- tweet_word_counts %>%
  bind_tf_idf(word, id, n)
tweet_word_counts

## Source: local data frame [8,592 x 7]
## Groups: id [?]
## 
##                    id                   word     n total         tf
##                 <chr>                  <chr> <int> <int>      <dbl>
## 1  676494179216805888 #makeamericagreatagain     1     4 0.25000000
## 2  676494179216805888             #trump2016     1     4 0.25000000
## 3  676494179216805888                 health     1     4 0.25000000
## 4  676494179216805888                 record     1     4 0.25000000
## 5  676509769562251264            @trumpdoral     1    11 0.09090909
## 6  676509769562251264             @trumpgolf     1    11 0.09090909
## 7  676509769562251264               accolade     1    11 0.09090909
## 8  676509769562251264                awarded     1    11 0.09090909
## 9  676509769562251264                   blue     1    11 0.09090909
## 10 676509769562251264                   golf     1    11 0.09090909
## # ... with 8,582 more rows, and 2 more variables: idf <dbl>, tf_idf <dbl>

Lets sort by the words with the greatest TF-IDF value:

tweet_word_counts %>%
  select(-total) %>%
  arrange(desc(tf_idf))

## Source: local data frame [8,592 x 6]
## Groups: id [1,172]
## 
##                    id                  word     n    tf      idf   tf_idf
##                 <chr>                 <chr> <int> <dbl>    <dbl>    <dbl>
## 1  682792967736848385  #happynewyearamerica     1     1 7.066467 7.066467
## 2  743947386720923648             @dallaspd     1     1 7.066467 7.066467
## 3  703326546686115840                 sweat     1     1 6.373320 6.373320
## 4  761653875413618689 #makeamericasafeagain     1     1 5.967855 5.967855
## 5  708183163969740800            #gopdebate     1     1 5.457029 5.457029
## 6  707225181513719808            @erictrump     1     1 5.274708 5.274708
## 7  682764544402440192                 happy     1     1 4.668572 4.668572
## 8  758030957530255360       #crookedhillary     1     1 4.233254 4.233254
## 9  758422125254471680       #crookedhillary     1     1 4.233254 4.233254
## 10 758802697763958784       #crookedhillary     1     1 4.233254 4.233254
## # ... with 8,582 more rows
…
